{
"articles": [
{"title": "Giải Bài Tarot Về Chủ Thể Khác", "link": "http://tarot.vn/giai-bai-tarot-ve-chu-the-khac/", "image": "http://tarot.vn/wp-content/uploads/2014/07/đọc-tarot-cho-người-khác.jpg"},
{"title": "Giải Bài Tarot Cho Bản Thân", "link": "http://tarot.vn/giai-bai-tarot-cho-ban-than/", "image": "http://tarot.vn/wp-content/uploads/2014/07/tự-giải-tarot-cho-bản-thân.jpg"},
{"title": "Môi Trường Giải Bài Tarot", "link": "http://tarot.vn/moi-truong-giai-bai-tarot/", "image": "http://tarot.vn/wp-content/uploads/2014/07/moi-truong-giai-bai-tarot.png"},
{"title": "Sơ Đồ Trải Bài Tarot Dùng Để Làm Gì?", "link": "http://tarot.vn/so-do-trai-bai-tarot/", "image": "http://tarot.vn/wp-content/uploads/2014/07/trải-bài-tarot.jpg"},
{"title": "Nhập Môn Tarot Căn Bản", "link": "http://tarot.vn/nhap-mon-tarot-can-ban/", "image": "http://tarot.vn/wp-content/uploads/2014/07/Tarot-for-Beginner.jpg"},
{"title": "Dành Cho Các Querents, Những Người Cần Tới Tarot", "link": "http://tarot.vn/danh-cho-cac-querents-nhung-nguoi-can-toi-tarot/", "image": "http://tarot.vn/wp-content/uploads/2016/04/01.jpg"},
{"title": "6 Cách Thức Ghi Nhớ Lá Bài Tarot Hiệu Quả", "link": "http://tarot.vn/6-cach-thuc-ghi-nho-la-bai-tarot-hieu-qua/", "image": "http://tarot.vn/wp-content/uploads/2016/04/12963775_559081570932437_8438371350865997125_n-1.jpg"},
{"title": "Cách Thức Sử Dụng Oracle Hiệu Quả", "link": "http://tarot.vn/cach-thuc-su-dung-oracle-hieu-qua/", "image": "http://tarot.vn/wp-content/uploads/2016/03/IMG_3342.jpg"},
{"title": "Nên Sử Dụng Trải Bài Có Sẵn Hay Trải FreeStyle?", "link": "http://tarot.vn/nen-su-dung-trai-bai-co-san-hay-trai-tu-do/", "image": "http://tarot.vn/wp-content/uploads/2016/02/mystical-cats-tarot-06-reading.jpeg"},
{"title": "4 Yếu Tố Quyết Định Một Tarot Reader Giỏi", "link": "http://tarot.vn/4-yeu-to-quyet-dinh-mot-tarot-reader-gioi/", "image": "http://tarot.vn/wp-content/uploads/2016/03/MG_0261.jpg"},
{"title": "6 Sai Lầm Dễ Vấp Phải Khi Nhập Môn Tarot", "link": "http://tarot.vn/6-sai-lam-de-vap-phai-khi-nhap-mon-tarot/", "image": "http://tarot.vn/wp-content/uploads/2016/03/IMG_3263.jpg"},
{"title": "9 Chiến Lược Sử Dụng Tarot Bảo Vệ Tình Yêu Của Bạn", "link": "http://tarot.vn/9-chien-luoc-su-dung-tarot-bao-ve-tinh-yeu-cua-ban/", "image": "http://tarot.vn/wp-content/uploads/2016/03/www_plus613_net_JosephineWallBreathofGaia.jpg"},
{"title": "Cách Xác Định Khía Cạnh Lá Bài Nhắc Đến?", "link": "http://tarot.vn/lam-the-nao-de-xac-dinh-duoc-khia-canh-la-bai-nhac-den/", "image": "http://tarot.vn/wp-content/uploads/2016/01/DSC01414.jpg"},
{"title": "So Sánh Death Và The Tower Trong Công Việc", "link": "http://tarot.vn/so-sanh-death-va-the-tower-trong-cong-viec/", "image": "http://tarot.vn/wp-content/uploads/2016/01/c26cd07126ece58999febcb35d78ef54.jpg"},
{"title": "Khi Lá Ẩn Chính (Major Arcana) Xuất Hiện Trong Trải Bài", "link": "http://tarot.vn/khi-la-an-chinh-major-arcana-xuat-hien-trong-trai-bai/", "image": "http://tarot.vn/wp-content/uploads/2016/01/IMG_2029.jpg"},
{"title": "Các Hệ Thống Kiến Giải Tarot", "link": "http://tarot.vn/cac-he-thong-kien-giai-tarot/", "image": "http://tarot.vn/wp-content/uploads/2015/07/Nefertari-tarot.jpg"},
{"title": "Quan Sát Cận Cảnh Lá Bài Tarot", "link": "http://tarot.vn/quan-sat-can-canh-la-bai-tarot/", "image": "http://tarot.vn/wp-content/uploads/2015/07/The-Lovers-cận-cảnh.jpg"},
{"title": "6 Sai Phạm Khi Đọc Bài Tarot Cho Bản Thân", "link": "http://tarot.vn/6-sai-pham-khi-doc-bai-tarot-cho-ban-than/", "image": "http://tarot.vn/wp-content/uploads/2015/07/Mary-el-Tarot.jpg"},
{"title": "Thiết Lập Không Gian Xem Bài Tarot", "link": "http://tarot.vn/thiet-lap-khong-gian-xem-bai-tarot/", "image": "http://tarot.vn/wp-content/uploads/2015/06/Tarot-Space.jpg"},
{"title": "Bí Mật Để Trở Thành Một Tarot Reader Chuyên Nghiệp", "link": "http://tarot.vn/bi-mat-de-tro-thanh-mot-tarot-reader-chuyen-nghiep/", "image": "http://tarot.vn/wp-content/uploads/2015/06/Ciro-Marchetti.jpg"},
{"title": "Sáng Tạo Trải Bài Tarot", "link": "http://tarot.vn/sang-tao-trai-bai-tarot/", "image": "http://tarot.vn/wp-content/uploads/2015/06/design-your-own-tarot-spread.png"},
{"title": "Phản Hồi Tiêu Cực Từ Khách Hàng Xem Tarot", "link": "http://tarot.vn/phan-hoi-tieu-cuc-tu-khach-hang-xem-tarot/", "image": "http://tarot.vn/wp-content/uploads/2015/06/review.jpg"},
{"title": "Cách Tìm Người Yêu Thông Qua Bài Tarot", "link": "http://tarot.vn/cach-tim-nguoi-yeu-thong-qua-bai-tarot/", "image": "http://tarot.vn/wp-content/uploads/2015/06/love.jpg"},
{"title": "7 Cách Để Có Được Công Việc Mong Muốn Thông Qua Tarot", "link": "http://tarot.vn/7-cach-de-co-duoc-cong-viec-mong-muon-thong-qua-tarot/", "image": "http://tarot.vn/wp-content/uploads/2015/06/Tarot-và-công-việc.jpg"},
{"title": "[QUAN ĐIỂM CÁ NHÂN] Quy tắc đầu tiên của Tarot Reader: Giữ bí mật cho khách hàng.", "link": "http://tarot.vn/quan-diem-ca-nhan-quy-tac-dau-tien-cua-tarot-reader-giu-bi-mat-cho-khach-hang/", "image": "http://tarot.vn/wp-content/uploads/2015/04/keep-a-secret.jpg"},
{"title": "Đạo Đức của Nghiệp Xem Bài Tarot", "link": "http://tarot.vn/dao-duc-cua-nghiep-xem-bai-tarot/", "image": "http://tarot.vn/wp-content/uploads/2015/04/Gilded-Lenormand.jpg"},
{"title": "Làm Cách Nào Để Công Khai Bạn Là Một Người Xem Tarot?", "link": "http://tarot.vn/lam-cach-nao-de-cong-khai-ban-la-mot-nguoi-xem-tarot/", "image": "http://tarot.vn/wp-content/uploads/2015/03/Tarot-reader.jpg"},
{"title": "Khi Nào Thì Nên Tăng Tiền Thù Lao Xem Bài Tarot?", "link": "http://tarot.vn/khi-nao-thi-nen-tang-tien-thu-lao-xem-bai-tarot/", "image": "http://tarot.vn/wp-content/uploads/2015/03/gia-xem-tarot-1-357x210.jpg"},
{"title": "Rút Mỗi Ngày Một Lá Bài Tarot", "link": "http://tarot.vn/rut-moi-ngay-mot-la-bai-tarot/", "image": "http://tarot.vn/wp-content/uploads/2015/03/Thien-dinh-voi-tarot.jpg"},
{"title": "3 Bước Đơn Giản Để Khởi Nghiệp Với Tarot", "link": "http://tarot.vn/3-buoc-don-gian-de-khoi-nghiep-voi-tarot/", "image": "http://tarot.vn/wp-content/uploads/2015/03/TAROT-CAREER.jpg"},
{"title": "Sự Thật Về Khả Năng Giải Bài Tarot", "link": "http://tarot.vn/su-ve-kha-nang-giai-bai-tarot/", "image": "http://tarot.vn/wp-content/uploads/2015/03/trai-bai.jpg"},
{"title": "Bí Quyết Để Xem Bài Tarot Tự Tin", "link": "http://tarot.vn/bi-quyet-de-xem-bai-tarot-tu-tin/", "image": "http://tarot.vn/wp-content/uploads/2015/02/Confident-Tarot-Reader.jpg"},
{"title": "Thiền Định Với Tarot", "link": "http://tarot.vn/thien-dinh-voi-tarot/", "image": "http://tarot.vn/wp-content/uploads/2015/02/Thien-dinh-voi-tarot.jpg"},
{"title": "Những Tuyệt Chiêu Giúp Bạn Học Shadowscapes Tarot Tốt Hơn", "link": "http://tarot.vn/nhung-tuyet-chieu-giup-ban-hoc-shadowscapes-tarot-tot-hon/", "image": "http://tarot.vn/wp-content/uploads/2014/12/tumblr_mymfkiAgHZ1tnrylno1_500.png"},
{"title": "Giải Bài Mở", "link": "http://tarot.vn/giai-bai-tarot-mo/", "image": "http://tarot.vn/wp-content/uploads/2014/07/rộng-mở-tâm-trí-trong-đọc-tarot.jpg"},
{"title": "5 Điều Cần Xem Xét Trước Khi Trở Thành Một Chuyên Gia Giải Bài Tarot", "link": "http://tarot.vn/5-dieu-can-xem-xet-truoc-khi-tro-thanh-mot-chuyen-gia-giai-bai-tarot/", "image": "http://tarot.vn/wp-content/uploads/2017/03/tarot-reader.jpg"},
{"title": "Trở Thành “Chuyên Gia Giải Bài Tarot” – Làm Sao Biết Bạn Đã Đủ Điều Kiện Để Tính Phí Các Giải Bài Tarot Của Mình", "link": "http://tarot.vn/tro-thanh-chuyen-gia-giai-bai-tarot-lam-sao-biet-ban-da-du-dieu-kien-de-tinh-phi-cac-giai-bai-tarot-cua-minh/", "image": "http://tarot.vn/wp-content/uploads/2017/03/tarot-reader-chuyen-nghiep.jpg"},
{"title": "Hai Lần Giải Bài Tarot Sai", "link": "http://tarot.vn/hai-lan-giai-bai-tarot-sai/", "image": "http://tarot.vn/wp-content/uploads/2017/03/17453691_1389496254441739_420006642_o-2.jpg"},
{"title": "Kỹ Năng Tarot Reader Phải Có: Phân Tích Tình Huống Trong Tarot", "link": "http://tarot.vn/phan-tich-tinh-huong-trong-tarot/", "image": "http://tarot.vn/wp-content/uploads/2016/10/IMG_0151.jpg"},
{"title": "Kể Chuyện Bằng Tarot", "link": "http://tarot.vn/trai-bai-tarot/", "image": "http://tarot.vn/wp-content/uploads/2016/07/IMG_7763.jpg"},
{"title": "3 Yếu Tố Giúp Buổi Read Bài Thành Công", "link": "http://tarot.vn/3-yeu-giup-buoi-read-bai-thanh-cong/", "image": "http://tarot.vn/wp-content/uploads/2016/06/1-led-light-Wall-Art-font-b-candle-b-font-Canvas-Print-Illuminated-painting-Frameless-Flickering.jpg"},
{"title": "Quy trình xuất bản Tarot", "link": "http://tarot.vn/quy-trinh-xuat-ban-tarot/", "image": "http://tarot.vn/wp-content/uploads/2016/06/6044db9833ed63a31cac88ccae4cd8b8.jpg"},
{"title": "13 Tuổi Có Nên Dùng Tarot?", "link": "http://tarot.vn/13-tuoi-co-nen-dung-tarot/", "image": "http://tarot.vn/wp-content/uploads/2016/05/IMG_7542.jpg"},
{"title": "Xem Tarot Online – Thách Thức Hay Cản Trở?", "link": "http://tarot.vn/xem-tarot-online-thach-thuc-hay-can-tro/", "image": "http://tarot.vn/wp-content/uploads/2016/05/DSC09940.jpg"},
{"title": "11 Cách Đọc Một Lá Bài", "link": "http://tarot.vn/11-cach-doc-mot-la-bai/", "image": "http://tarot.vn/wp-content/uploads/2016/04/IMG_3299.jpg"},
{"title": "4 Lý Do Khiến Bạn Đọc Bài Không Đúng", "link": "http://tarot.vn/4-ly-do-khien-ban-doc-bai-khong-dung/", "image": "http://tarot.vn/wp-content/uploads/2015/12/12310444_540542809442021_6876820487471803396_n.jpg"},
{"title": "7 Kỹ Thuật Giải Bài Mà Ai Cũng Biết", "link": "http://tarot.vn/ky-thuat-giai-bai-ma-ai-cung-biet/", "image": "http://tarot.vn/wp-content/uploads/2015/12/1241442-bigthumbnail.jpg"},
{"title": "Tarot – Tâm Lý Hay Tâm Linh?", "link": "http://tarot.vn/tarot-tam-ly-hay-tam-linh/", "image": "http://tarot.vn/wp-content/uploads/2015/11/10404115_869811143037344_5492742669466199438_n.jpg"},
{"title": "Thông Tin Tarot Cá Nhân", "link": "http://tarot.vn/thong-tin-tarot-ca-nhan/", "image": "http://tarot.vn/wp-content/uploads/2015/09/Birth-Card.jpg"},
{"title": "Con Đường Bí Mật Trong Giải Bài Tarot", "link": "http://tarot.vn/con-duong-bi-mat-trong-giai-bai-tarot/", "image": "http://tarot.vn/wp-content/uploads/2015/08/Tarot-Path.jpg"},
{"title": "Các Bộ Trong Tarot về Năng Lực Chiến Lược và Sáng Tạo", "link": "http://tarot.vn/cac-bo-trong-tarot-ve-nang-luc-chien-luoc-va-sang-tao/", "image": "http://tarot.vn/wp-content/uploads/2015/08/Wild-Unknown-Tarot-4e.jpg"},
{"title": "Người Mới Nên Sử Dụng Trải Bài Tarot Như Nào Cho Phù Hợp", "link": "http://tarot.vn/nguoi-moi-nen-su-dung-trai-bai-tarot-nhu-nao-cho-phu-hop/", "image": "http://tarot.vn/wp-content/uploads/2015/08/Trải-bài-3-lá.jpg"},
{"title": "Những Lá Bài Tarot “Khó Nhai”", "link": "http://tarot.vn/nhung-la-bai-tarot-kho-nhai/", "image": "http://tarot.vn/wp-content/uploads/2015/07/Light-grey-Tarot-4.jpg"},
{"title": "Sự Kết Hợp Các Lá Bài Tarot", "link": "http://tarot.vn/su-ket-hop-cac-la-bai-tarot/", "image": "http://tarot.vn/wp-content/uploads/2015/07/XIII-Tarot-4.jpeg"},
{"title": "Thuộc Tính và Hình Ảnh Khác Nhau Giữa Các Bộ Bài Tarot", "link": "http://tarot.vn/thuoc-tinh-va-hinh-anh-khac-nhau-giua-cac-bo-bai-tarot/", "image": "http://tarot.vn/wp-content/uploads/2015/07/Kiet-Hung-Vo.jpg"},
{"title": "11 Cách Tự Giải Bài Tarot", "link": "http://tarot.vn/11-cach-tu-giai-bai-tarot/", "image": "http://tarot.vn/wp-content/uploads/2017/08/tu-giai-bai-tarot-357x210.jpg"},
{"title": "Những Điều Cần Lưu Ý Khi Mua Một Bộ Bài Tarot Mới", "link": "http://tarot.vn/nhung-dieu-can-luu-y-khi-mua-mot-bo-bai-tarot-moi/", "image": "http://tarot.vn/wp-content/uploads/2017/07/bai-tarot-moi-1-357x210.jpg"},
{"title": "5 Lý Do Bạn Cần Có Một Người Giải Bài Tarot", "link": "http://tarot.vn/5-ly-do-ban-can-co-mot-nguoi-giai-bai-tarot/", "image": "http://tarot.vn/wp-content/uploads/2017/07/5-Lý-Do-Bạn-Cần-Có-Một-Người-Giải-Bài-Tarot-357x210.jpg"},
{"title": "Tôi Nên Sở Hữu Bao Nhiêu Bộ Bài Tarot", "link": "http://tarot.vn/toi-nen-huu-bao-nhieu-bo-bai-tarot/", "image": "http://tarot.vn/wp-content/uploads/2017/07/Tôi-nên-sở-hữu-bao-nhiêu-bộ-bài-tarot-357x210.jpg"},
{"title": "Reader Sử Dụng Ngày Giờ Sinh Của Querent Trong Buổi Xem Tarot Vào Mục Đích Gì?", "link": "http://tarot.vn/reader-su-dung-ngay-gio-sinh-cua-querent-trong-buoi-xem-tarot-vao-muc-dich-gi/", "image": "http://tarot.vn/wp-content/uploads/2017/07/11902289_977538975637471_4470226662530210092_n-357x210.jpg"},
{"title": "Vì Sao Newbie Khoan Vội Dùng Lá Bài Ngược?", "link": "http://tarot.vn/vi-sao-newbie-khoan-voi-dung-la-bai-nguoc/", "image": "http://tarot.vn/wp-content/uploads/2017/07/cb0a52fa17d5f0abcda381bb72550933-card-reader-tarot-reading-357x210.jpg"},
{"title": "Tôi Cần Làm Gì Để Bắt Đầu Công Việc Giải Bài Tarot Chuyên Nghiệp", "link": "http://tarot.vn/toi-can-lam-gi-de-bat-dau-cong-viec-giai-bai-tarot-chuyen-nghiep/", "image": "http://tarot.vn/wp-content/uploads/2017/06/tarot-reader-chuyên-nghiệp-357x210.jpg"},
{"title": "10 Điều Quan Trọng Không Được Bỏ Qua Khi Giải Bài", "link": "http://tarot.vn/10-dieu-quan-trong-khong-duoc-bo-qua-khi-giai-bai/", "image": "http://tarot.vn/wp-content/uploads/2017/04/tumblr_nyfveu4MB91sztrf7o1_540.jpg"},
{"title": "Những Điều Bạn Cần Biết Nếu Muốn Trở Thành Một Người Giải Bài Tarot Chuyên Nghiệp", "link": "http://tarot.vn/nhung-dieu-ban-can-biet-neu-muon-tro-thanh-mot-nguoi-giai-bai-tarot-chuyen-nghiep/", "image": "http://tarot.vn/wp-content/uploads/2017/04/tro-thanh-tarot-reader-chuyen-nghiep.jpg"},
{"title": "Trở Thành Người Giải Bài Tarot Chuyên Nghiệp", "link": "http://tarot.vn/tro-thanh-nguoi-giai-bai-tarot-chuyen-nghiep/", "image": "http://tarot.vn/wp-content/uploads/2017/03/xem-tarot-chuyen-nghiep.jpg"}
]
}